{
  "type": "service_account",
  "project_id": "notifyme-739e4",
  "private_key_id": "688bbc7ec1fd097bdadbcf23b0b31b8573a02a10",
  "private_key": "-----BEGIN PRIVATE KEY-----\nMIIEvwIBADANBgkqhkiG9w0BAQEFAASCBKkwggSlAgEAAoIBAQC/9o0as5vvyQ9s\neJvNByTMbMiRfcE0cHEeENA4vH9C7+UAauBCRs5LiCD8cYeSHWzhn2xI/OT992P3\nlZV4ZcNInX8FuxPfKs9ph5+47n1lu7Lx25I0nY6eq6Au+v1jXgbeeoivEAhl8eOI\nl2GRHbW6ASJp+O/j5T5piApaKCkMie4Qc/pKIwmdDuQnt06oGfu6ZGIGhJpwxb4x\nB/1hq1D0wHoyDdT3nlNCE5wcQifsxc+w02ZqhwcrUZj/vOO3zbDdyLJg8Z6HaxPG\nqm5+wGb6OJgktelqxb/tX1Eauh1sS8LzwvqVcJZkdgyqLsuON3AeZ4fhmZ5TxxPr\nnOKsH+7TAgMBAAECggEAD5TsEo0eYjytc349afYOJvMe5gMRf2KFJricqOOmvNXg\n08ODx+gcGgYcZKwJIh4grBZsYWb4ZiOs9KLVYCbPztbMlw1+vnBTfQW/kZuiMsjP\n7KaIW/GnavppZTGFsd7Rq0DCVDDL+GJwYrJO/srXk8KV0DOfB/OgDkw28ucsSyfJ\nslBoDi3fSxs3FkPR0fvqg1AroyhRKtkwatPQj4R3gRVN9gWy1LUmPPTDPwOlXNzU\nernRE1cv2M3dvWcmRr2TK4XCe2fuvuS5UNbEgYdrcHM8gztOecFD3KrrgKgokQ58\nchTqC2LUpO5PwHq9B4O5OdtLaUlJx5wtS81k5J78UQKBgQDgpb+xN5y+FzvoAXjG\n+G6k568f3MWvS+4+Ucln04nAIX+tAIRIlH+v1kce50hkro+SCMHL8o5y2o7fjVVs\nIl33iu64l9NnCqSj8zEO54RAt6Y6QJn+D78qMeB1IbCxPhdSzhJo3Ayk4lCR6fQs\nI/e5UphZa/8P67+sh0kji++D2wKBgQDawQxt+IaDTHgBrS/Ah3+/Yk6lWHGRmDE4\nfQN8c2/5PgxH5Gl5JoBU0Ilxjkga9qCPlXJjkYMJgyCiixSpjpwtmdY0slXzyUjf\nfkJ/CHkCzKc0uRyPHcLcmvFN6sbLCYhG3LerXAVpZSFS9oVFAuA3wTaRzluLK8O7\nIKHt9wyuaQKBgQCbQVH6+1FDerE3RZUgBeAJ7ej1H1IsNVDhFwsXy3W/KCeh++Jw\netjIQFIExJkepBmrNowhFHBoZi4px/bKdfH1O7qCLsO2yf9BI7i68TxQsdubFLyY\nfm+CjNfwe6kuxZe+7ZaBi9rdNV+ziDntK6pwFOofmui7KxXb+d+NRo/w0wKBgQCu\n5rD4cD+kVQySUpUee3fxXjmBTACppySbhKC37Vg20JxjEsYd3mG27nEmANu36z6e\n7p9h6qL5hQUf0NG5a9OFRj2VLo04eNQyFTI3fV+7lEOQDP0/lE0LszqB0NgW2E1E\nUw7rDI0rIneNbJtLfSwmh+4IkBRzZo99W278440ZGQKBgQC0Ohtv/yTjAu44eFHT\njT2MAaNjj8bbdoRun5LX9BWKfDPN1J76PzCJfof/NgTpYXt4pEshGtkeFOED5h41\nCKaXhuGCWp9RDfrSaT3V1EZ9LLkxigT0IFVkelv7oTO+vv9sKaOCs5jIYmKBoDRR\ndupZIEdriGZ4/uJQ5toj9FcotQ==\n-----END PRIVATE KEY-----\n",
  "client_email": "firebase-adminsdk-rry4j@notifyme-739e4.iam.gserviceaccount.com",
  "client_id": "115935012836568242563",
  "auth_uri": "https://accounts.google.com/o/oauth2/auth",
  "token_uri": "https://oauth2.googleapis.com/token",
  "auth_provider_x509_cert_url": "https://www.googleapis.com/oauth2/v1/certs",
  "client_x509_cert_url": "https://www.googleapis.com/robot/v1/metadata/x509/firebase-adminsdk-rry4j%40notifyme-739e4.iam.gserviceaccount.com"
}
